<?xml version="1.0" encoding="UTF-8" ?>
<OAI-PMH xmlns="http://www.openarchives.org/OAI/2.0/"
 xmlns:xsi="http://www.w3.org/2001/XMLSchema-instance"
 xsi:schemaLocation="http://www.openarchives.org/OAI/2.0/
 http://www.openarchives.org/OAI/2.0/OAI-PMH.xsd">

<responseDate>2015-02-19T23:11:05Z</responseDate>
<request verb="ListRecords" metadataPrefix="iso">http://www.polardata.ca/oai/provider</request>

<ListRecords>

  <record>
    <header>
      <identifier>80_iso</identifier>
      <datestamp>2014-11-24T19:34:39Z</datestamp>
    </header>

    <metadata>
      <gmd:MD_Metadata xmlns:gss="http://www.isotc211.org/2005/gss" xmlns:gts="http://www.isotc211.org/2005/gts" xmlns:gml="http://www.opengis.net/gml" xmlns:xlink="http://www.w3.org/1999/xlink" xmlns:gco="http://www.isotc211.org/2005/gco" xmlns:gmd="http://www.isotc211.org/2005/gmd" xmlns:functx="http://www.functx.com" xmlns:gmi="http://www.isotc211.org/2005/gmi" xmlns:gmx="http://www.isotc211.org/2005/gmx" xmlns:gsr="http://www.isotc211.org/2005/gsr" xmlns:srv="http://www.isotc211.org/2005/srv" xmlns="http://www.isotc211.org/2005/gmi" xmlns:xsi="http://www.w3.org/2001/XMLSchema-instance" xsi:schemaLocation="http://www.isotc211.org/2005/gmd http://www.isotc211.org/2005/gmd/gmd.xsd">
        <gmd:fileIdentifier>
          <gco:CharacterString>80_iso.xml</gco:CharacterString>
        </gmd:fileIdentifier>
        <gmd:language><gco:CharacterString>eng; CAN</gco:CharacterString></gmd:language>
        <gmd:characterSet><gmd:MD_CharacterSetCode codeList="http://www.isotc211.org/2005/resources/Codelist/gmxCodelists.xml#MD_CharacterSetCode" codeListValue="utf8" codeSpace="ISOTC211/19115">utf8</gmd:MD_CharacterSetCode></gmd:characterSet>
        <gmd:hierarchyLevel><gmd:MD_ScopeCode codeList="http://www.isotc211.org/2005/resources/Codelist/gmxCodelists.xml#MD_ScopeCode" codeListValue="dataset" codeSpace="ISOTC211/19115">dataset</gmd:MD_ScopeCode></gmd:hierarchyLevel>
        <gmd:contact><gmd:CI_ResponsibleParty><gmd:individualName><gco:CharacterString>Polar Data Catalogue</gco:CharacterString></gmd:individualName><gmd:organisationName><gco:CharacterString>Canadian Cryospheric Information Network</gco:CharacterString></gmd:organisationName><gmd:contactInfo><gmd:CI_Contact><gmd:phone><gmd:CI_Telephone><gmd:voice><gco:CharacterString>(519) 888-4567 x32689</gco:CharacterString></gmd:voice></gmd:CI_Telephone></gmd:phone><gmd:address><gmd:CI_Address><gmd:deliveryPoint><gco:CharacterString>200 University Avenue West, University of Waterloo</gco:CharacterString></gmd:deliveryPoint><gmd:city><gco:CharacterString>Waterloo</gco:CharacterString></gmd:city><gmd:administrativeArea><gco:CharacterString>Ontario</gco:CharacterString></gmd:administrativeArea><gmd:postalCode><gco:CharacterString>N2L 3G1</gco:CharacterString></gmd:postalCode><gmd:country><gco:CharacterString>Canada</gco:CharacterString></gmd:country><gmd:electronicMailAddress><gco:CharacterString>pdc@uwaterloo.ca</gco:CharacterString></gmd:electronicMailAddress></gmd:CI_Address></gmd:address></gmd:CI_Contact></gmd:contactInfo><gmd:role><gmd:CI_RoleCode codeList="http://www.isotc211.org/2005/resources/Codelist/gmxCodelists.xml#CI_RoleCode" codeListValue="pointOfContact" codeSpace="ISOTC211/19115">pointOfContact</gmd:CI_RoleCode></gmd:role></gmd:CI_ResponsibleParty></gmd:contact>
        <gmd:dateStamp><gco:Date>2014-05-12</gco:Date></gmd:dateStamp>
        <gmd:metadataStandardName><gco:CharacterString>North American Profile of ISO 19115:2003</gco:CharacterString></gmd:metadataStandardName>
        <gmd:metadataStandardVersion><gco:CharacterString>2009-01-01</gco:CharacterString></gmd:metadataStandardVersion>
        <gmd:dataSetURI><gco:CharacterString>www.polardata.ca/pdcsearch/PDCSearchDOI.jsp?doi_id=80</gco:CharacterString></gmd:dataSetURI>
        <gmd:identificationInfo><gmd:MD_DataIdentification>
            <gmd:citation><gmd:CI_Citation><gmd:title><gco:CharacterString>ArcticNet 0501a - Northern Baffin Bay CTD data</gco:CharacterString></gmd:title><gmd:date><gmd:CI_Date><gmd:date><gco:Date>2014-05-12</gco:Date></gmd:date><gmd:dateType><gmd:CI_DateTypeCode codeList="http://www.isotc211.org/2005/resources/Codelist/gmxCodelists.xml#CI_DateTypeCode" codeListValue="publication" codeSpace="ISOTC211/19115">publication</gmd:CI_DateTypeCode></gmd:dateType></gmd:CI_Date></gmd:date><gmd:citedResponsibleParty><gmd:CI_ResponsibleParty><gmd:individualName><gco:CharacterString>Gratton Yves</gco:CharacterString></gmd:individualName><gmd:role><gmd:CI_RoleCode codeList="http://www.isotc211.org/2005/resources/Codelist/gmxCodelists.xml#CI_RoleCode" codeListValue="principalInvestigator" codeSpace="ISOTC211/19115">principalInvestigator</gmd:CI_RoleCode></gmd:role></gmd:CI_ResponsibleParty></gmd:citedResponsibleParty><gmd:citedResponsibleParty><gmd:CI_ResponsibleParty><gmd:individualName><gco:CharacterString>Gratton Yves</gco:CharacterString></gmd:individualName><gmd:role><gmd:CI_RoleCode codeList="http://www.isotc211.org/2005/resources/Codelist/gmxCodelists.xml#CI_RoleCode" codeListValue="Originator" codeSpace="ISOTC211/19115">Originator</gmd:CI_RoleCode></gmd:role></gmd:CI_ResponsibleParty></gmd:citedResponsibleParty><gmd:citedResponsibleParty><gmd:CI_ResponsibleParty><gmd:individualName><gco:CharacterString>Lago Véronique</gco:CharacterString></gmd:individualName><gmd:role><gmd:CI_RoleCode codeList="http://nap.geogratis.gc.ca/metadata/register/napMetadataRegister.xml#IC_90" codeListValue="ri_419" codeSpace="ISOTC211/19115">Collaborator</gmd:CI_RoleCode></gmd:role></gmd:CI_ResponsibleParty></gmd:citedResponsibleParty><gmd:citedResponsibleParty><gmd:CI_ResponsibleParty><gmd:individualName><gco:CharacterString>Rail Marie-Emmanuelle</gco:CharacterString></gmd:individualName><gmd:role><gmd:CI_RoleCode codeList="http://nap.geogratis.gc.ca/metadata/register/napMetadataRegister.xml#IC_90" codeListValue="ri_419" codeSpace="ISOTC211/19115">Collaborator</gmd:CI_RoleCode></gmd:role></gmd:CI_ResponsibleParty></gmd:citedResponsibleParty><gmd:otherCitationDetails><gco:CharacterString>Simard, A; Rail, M-E and Gratton, Y (2010): Distribution of temperature and salinity in the Canadian Arctic Archipelago during the 2005 ArcticNet sampling expedition (from August 5th to October 27th 2005). Report No R1126, INRS-ETE, Québec (Qc): vi + 79 p.</gco:CharacterString></gmd:otherCitationDetails></gmd:CI_Citation></gmd:citation>
            <gmd:abstract><gco:CharacterString>The CTD data was obtained during the 2005 ArcticNet scientific cruise #0501. The data were collected from August 14 to 23, 2005, aboard the CCGS Amundsen. There were 54 casts, associated to 36 oceanographic stations, in the Northern Baffin Bay. 

                The following parameters were measured: temperature, conductivity and pressure (with a Sea-Bird SBE-9plus), dissolved oxygen (Sea-Bird SBE-43), pH (Sea-Bird SBE-18-I), fluorescence (Seapoint chlorophyll fluorometer), nitrate concentration (Satlantic MBARI-ISUS 5T), transmittance (Wetlabs C-Star transmissometer), light intensity (PAR; Biospherical Instruments QCP2300) and surface light intensity (sPAR; Biospherical Instruments QCP2200). Quality control procedures were applied to the data. Data are available on the Polar Data Catalogue and at the Marine Environmental Data Service (MEDS) of Fisheries and Oceans Canada.</gco:CharacterString></gmd:abstract>
            <gmd:purpose><gco:CharacterString>The physical data are one of the tools used to characterize the water masses and, to some extent, the water circulation in the Northern Baffin Bay.</gco:CharacterString></gmd:purpose>
            <gmd:status><gmd:MD_ProgressCode codeList="http://www.isotc211.org/2005/resources/Codelist/gmxCodelists.xml#MD_ProgressCode" codeListValue="completed" codeSpace="ISOTC211/19115">completed</gmd:MD_ProgressCode></gmd:status>
            <gmd:pointOfContact><gmd:CI_ResponsibleParty><gmd:individualName><gco:CharacterString>Polar Data Catalogue</gco:CharacterString></gmd:individualName><gmd:organisationName><gco:CharacterString>Canadian Cryospheric Information Network</gco:CharacterString></gmd:organisationName><gmd:contactInfo><gmd:CI_Contact><gmd:phone><gmd:CI_Telephone><gmd:voice><gco:CharacterString>(519) 888-4567 x32689</gco:CharacterString></gmd:voice></gmd:CI_Telephone></gmd:phone><gmd:address><gmd:CI_Address><gmd:deliveryPoint><gco:CharacterString>200 University Avenue West, University of Waterloo</gco:CharacterString></gmd:deliveryPoint><gmd:city><gco:CharacterString>Waterloo</gco:CharacterString></gmd:city><gmd:administrativeArea><gco:CharacterString>Ontario</gco:CharacterString></gmd:administrativeArea><gmd:postalCode><gco:CharacterString>N2L 3G1</gco:CharacterString></gmd:postalCode><gmd:country><gco:CharacterString>Canada</gco:CharacterString></gmd:country><gmd:electronicMailAddress><gco:CharacterString>pdc@uwaterloo.ca</gco:CharacterString></gmd:electronicMailAddress></gmd:CI_Address></gmd:address><gmd:onlineResource><gmd:CI_OnlineResource><gmd:linkage><gmd:URL>polardata.ca</gmd:URL></gmd:linkage><gmd:protocol><gco:CharacterString>http</gco:CharacterString></gmd:protocol></gmd:CI_OnlineResource></gmd:onlineResource></gmd:CI_Contact></gmd:contactInfo><gmd:role><gmd:CI_RoleCode codeList="http://www.isotc211.org/2005/resources/Codelist/gmxCodelists.xml#CI_RoleCode" codeListValue="pointOfContact" codeSpace="ISOTC211/19115">pointOfContact</gmd:CI_RoleCode></gmd:role></gmd:CI_ResponsibleParty></gmd:pointOfContact>
            <gmd:descriptiveKeywords><gmd:MD_Keywords><gmd:keyword><gco:CharacterString>North Water Polynya</gco:CharacterString></gmd:keyword><gmd:keyword><gco:CharacterString>CTD profiles</gco:CharacterString></gmd:keyword><gmd:keyword><gco:CharacterString>Oxygen</gco:CharacterString></gmd:keyword><gmd:keyword><gco:CharacterString>Salinity</gco:CharacterString></gmd:keyword><gmd:keyword><gco:CharacterString>Temperature</gco:CharacterString></gmd:keyword><gmd:keyword><gco:CharacterString>Photosynthetically available radiation (PAR)</gco:CharacterString></gmd:keyword><gmd:keyword><gco:CharacterString>Fluorescence</gco:CharacterString></gmd:keyword><gmd:keyword><gco:CharacterString>Nitrates</gco:CharacterString></gmd:keyword><gmd:keyword><gco:CharacterString>Transmittance</gco:CharacterString></gmd:keyword><gmd:type><gmd:MD_KeywordTypeCode codeList="http://www.isotc211.org/2005/resources/Codelist/gmxCodelists.xml#MD_KeywordTypeCode" codeListValue="theme" codeSpace="ISOTC211/19115">theme</gmd:MD_KeywordTypeCode></gmd:type><gmd:thesaurusName><gmd:CI_Citation><gmd:title><gco:CharacterString>Polar Data Catalogue Thesaurus (Canada)</gco:CharacterString></gmd:title><gmd:date><gmd:CI_Date><gmd:date><gco:Date>2014-11-24</gco:Date></gmd:date><gmd:dateType><gmd:CI_DateTypeCode codeList="http://www.isotc211.org/2005/resources/Codelist/gmxCodelists.xml#CI_DateTypeCode" codeListValue="publication" codeSpace="ISOTC211/19115">publication</gmd:CI_DateTypeCode></gmd:dateType></gmd:CI_Date></gmd:date><gmd:citedResponsibleParty><gmd:CI_ResponsibleParty><gmd:organisationName><gco:CharacterString>Canadian Cryospheric Information Network</gco:CharacterString></gmd:organisationName><gmd:contactInfo><gmd:CI_Contact><gmd:phone><gmd:CI_Telephone><gmd:voice><gco:CharacterString>(519) 888-4567 x32689</gco:CharacterString></gmd:voice></gmd:CI_Telephone></gmd:phone><gmd:address><gmd:CI_Address><gmd:deliveryPoint><gco:CharacterString>200 University Avenue West, University of Waterloo</gco:CharacterString></gmd:deliveryPoint><gmd:city><gco:CharacterString>Waterloo</gco:CharacterString></gmd:city><gmd:administrativeArea><gco:CharacterString>Ontario</gco:CharacterString></gmd:administrativeArea><gmd:postalCode><gco:CharacterString>N2L 3G1</gco:CharacterString></gmd:postalCode><gmd:country><gco:CharacterString>Canada</gco:CharacterString></gmd:country><gmd:electronicMailAddress><gco:CharacterString>pdc@uwaterloo.ca</gco:CharacterString></gmd:electronicMailAddress></gmd:CI_Address></gmd:address><gmd:onlineResource><gmd:CI_OnlineResource><gmd:linkage><gmd:URL>polardata.ca</gmd:URL></gmd:linkage><gmd:protocol><gco:CharacterString>http</gco:CharacterString></gmd:protocol></gmd:CI_OnlineResource></gmd:onlineResource></gmd:CI_Contact></gmd:contactInfo><gmd:role><gmd:CI_RoleCode codeList="http://www.isotc211.org/2005/resources/Codelist/gmxCodelists.xml#CI_RoleCode" codeListValue="originator" codeSpace="ISOTC211/19115">originator</gmd:CI_RoleCode></gmd:role></gmd:CI_ResponsibleParty></gmd:citedResponsibleParty><gmd:otherCitationDetails><gco:CharacterString>https://www.polardata.ca/pdcinput/public/keywordslibrary.ccin</gco:CharacterString></gmd:otherCitationDetails></gmd:CI_Citation></gmd:thesaurusName></gmd:MD_Keywords></gmd:descriptiveKeywords>
            <gmd:descriptiveKeywords><gmd:MD_Keywords><gmd:keyword><gco:CharacterString>Northern Baffin Bay, Nunavut</gco:CharacterString></gmd:keyword><gmd:type><gmd:MD_KeywordTypeCode codeList="http://www.isotc211.org/2005/resources/Codelist/gmxCodelists.xml#MD_KeywordTypeCode" codeListValue="place" codeSpace="ISOTC211/19115">place</gmd:MD_KeywordTypeCode></gmd:type></gmd:MD_Keywords></gmd:descriptiveKeywords>
            <gmd:resourceConstraints><gmd:MD_LegalConstraints><gmd:accessConstraints><gmd:MD_RestrictionCode codeList="http://www.isotc211.org/2005/resources/Codelist/gmxCodelists.xml#MD_RestrictionCode" codeListValue="otherRestrictions" codeSpace="ISOTC211/19115">otherRestrictions</gmd:MD_RestrictionCode></gmd:accessConstraints><gmd:useConstraints><gmd:MD_RestrictionCode codeList="http://www.isotc211.org/2005/resources/Codelist/gmxCodelists.xml#MD_RestrictionCode" codeListValue="otherRestrictions" codeSpace="ISOTC211/19115">otherRestrictions</gmd:MD_RestrictionCode></gmd:useConstraints><gmd:otherConstraints><gco:CharacterString>Terms of Use of the Polar Data Catalogue: https://www.polardata.ca/pdcinput/public/termsofuse.ccin</gco:CharacterString></gmd:otherConstraints></gmd:MD_LegalConstraints></gmd:resourceConstraints>
            <gmd:language><gco:CharacterString>eng; CAN</gco:CharacterString></gmd:language>
            <gmd:topicCategory><gmd:MD_TopicCategoryCode>environment</gmd:MD_TopicCategoryCode></gmd:topicCategory>
            <gmd:extent>
              <gmd:EX_Extent id="boundingExtent">
                <gmd:geographicElement>
                  <gmd:EX_GeographicBoundingBox id="boundingGeographicBoundingBox">
                    <gmd:westBoundLongitude><gco:Decimal>-80</gco:Decimal></gmd:westBoundLongitude>
                    <gmd:eastBoundLongitude><gco:Decimal>-70</gco:Decimal></gmd:eastBoundLongitude>
                    <gmd:southBoundLatitude><gco:Decimal>72</gco:Decimal></gmd:southBoundLatitude>
                    <gmd:northBoundLatitude><gco:Decimal>79</gco:Decimal></gmd:northBoundLatitude>
                  </gmd:EX_GeographicBoundingBox>
                </gmd:geographicElement>
                <gmd:temporalElement>
                  <gmd:EX_TemporalExtent>
                    <gmd:extent>
                      <gml:TimePeriod gml:id="boundingTemporalExtent">
                        <gml:description>Time period can be either covered by the content of the dataset or the date when the data has been collected.</gml:description>
                        <gml:beginPosition>2005-08-14</gml:beginPosition>
                        <gml:endPosition>2005-08-23</gml:endPosition>
                      </gml:TimePeriod>
                    </gmd:extent>
                  </gmd:EX_TemporalExtent>
                </gmd:temporalElement>
              </gmd:EX_Extent>
            </gmd:extent>
            <gmd:supplementalInformation><gco:CharacterString>Summary: Not Applicable Research Program(s): ArcticNet. For further information: pdc@arcticnet.ulaval.ca</gco:CharacterString></gmd:supplementalInformation>
        </gmd:MD_DataIdentification></gmd:identificationInfo>
        <gmd:contentInfo><gmd:MD_FeatureCatalogueDescription><gmd:includedWithDataset><gco:Boolean>false</gco:Boolean></gmd:includedWithDataset><gmd:featureCatalogueCitation gco:nilReason="unknown"></gmd:featureCatalogueCitation></gmd:MD_FeatureCatalogueDescription></gmd:contentInfo>
        <gmd:distributionInfo><gmd:MD_Distribution><gmd:distributionFormat><gmd:MD_Format><gmd:name><gco:CharacterString>Digital file</gco:CharacterString></gmd:name><gmd:version><gco:CharacterString>1.0</gco:CharacterString></gmd:version></gmd:MD_Format></gmd:distributionFormat><gmd:distributor><gmd:MD_Distributor><gmd:distributorContact><gmd:CI_ResponsibleParty><gmd:individualName><gco:CharacterString>Polar Data Catalogue</gco:CharacterString></gmd:individualName><gmd:organisationName><gco:CharacterString>Canadian Cryospheric Information Network</gco:CharacterString></gmd:organisationName><gmd:contactInfo><gmd:CI_Contact><gmd:phone><gmd:CI_Telephone><gmd:voice><gco:CharacterString>(519) 888-4567 x32689</gco:CharacterString></gmd:voice></gmd:CI_Telephone></gmd:phone><gmd:address><gmd:CI_Address><gmd:deliveryPoint><gco:CharacterString>200 University Avenue West, University of Waterloo</gco:CharacterString></gmd:deliveryPoint><gmd:city><gco:CharacterString>Waterloo</gco:CharacterString></gmd:city><gmd:administrativeArea><gco:CharacterString>Ontario</gco:CharacterString></gmd:administrativeArea><gmd:postalCode><gco:CharacterString>N2L 3G1</gco:CharacterString></gmd:postalCode><gmd:country><gco:CharacterString>Canada</gco:CharacterString></gmd:country><gmd:electronicMailAddress><gco:CharacterString>pdc@uwaterloo.ca</gco:CharacterString></gmd:electronicMailAddress></gmd:CI_Address></gmd:address></gmd:CI_Contact></gmd:contactInfo><gmd:role><gmd:CI_RoleCode codeList="http://www.isotc211.org/2005/resources/Codelist/gmxCodelists.xml#CI_RoleCode" codeListValue="distributor" codeSpace="ISOTC211/19115">distributor</gmd:CI_RoleCode></gmd:role></gmd:CI_ResponsibleParty></gmd:distributorContact></gmd:MD_Distributor></gmd:distributor></gmd:MD_Distribution></gmd:distributionInfo>
        <gmd:metadataMaintenance><gmd:MD_MaintenanceInformation><gmd:maintenanceAndUpdateFrequency gco:nilReason="unknown"></gmd:maintenanceAndUpdateFrequency><gmd:maintenanceNote><gco:CharacterString>This metadata was generated from the PDC metadata database at 2014-11-24</gco:CharacterString></gmd:maintenanceNote><gmd:contact><gmd:CI_ResponsibleParty><gmd:individualName><gco:CharacterString>Polar Data Catalogue</gco:CharacterString></gmd:individualName><gmd:organisationName><gco:CharacterString>Canadian Cryospheric Information Network</gco:CharacterString></gmd:organisationName><gmd:contactInfo><gmd:CI_Contact><gmd:phone><gmd:CI_Telephone><gmd:voice><gco:CharacterString>(519) 888-4567 x32689</gco:CharacterString></gmd:voice></gmd:CI_Telephone></gmd:phone><gmd:address><gmd:CI_Address><gmd:deliveryPoint><gco:CharacterString>200 University Avenue West, University of Waterloo</gco:CharacterString></gmd:deliveryPoint><gmd:city><gco:CharacterString>Waterloo</gco:CharacterString></gmd:city><gmd:administrativeArea><gco:CharacterString>Ontario</gco:CharacterString></gmd:administrativeArea><gmd:postalCode><gco:CharacterString>N2L 3G1</gco:CharacterString></gmd:postalCode><gmd:country><gco:CharacterString>Canada</gco:CharacterString></gmd:country><gmd:electronicMailAddress><gco:CharacterString>pdc@uwaterloo.ca</gco:CharacterString></gmd:electronicMailAddress></gmd:CI_Address></gmd:address></gmd:CI_Contact></gmd:contactInfo><gmd:role><gmd:CI_RoleCode codeList="http://www.isotc211.org/2005/resources/Codelist/gmxCodelists.xml#CI_RoleCode" codeListValue="originator" codeSpace="ISOTC211/19115">originator</gmd:CI_RoleCode></gmd:role></gmd:CI_ResponsibleParty></gmd:contact></gmd:MD_MaintenanceInformation></gmd:metadataMaintenance>
      </gmd:MD_Metadata>

    </metadata>

  </record>
  
  <resumptionToken completeListSize="1928" cursor="0">0/300/1928/iso/null/null/null</resumptionToken>
</ListRecords>
</OAI-PMH> 
